<?xml version="1.0" encoding="UTF-8"?>
<svg width="162px" height="229px" viewBox="0 0 162 229" version="1.1" xmlns="http://www.w3.org/2000/svg" xmlns:xlink="http://www.w3.org/1999/xlink">
    <!-- Generator: Sketch 45.1 (43504) - http://www.bohemiancoding.com/sketch -->
    <title>Stroke 1</title>
    <desc>Created with Sketch.</desc>
    <defs>
        <linearGradient x1="100%" y1="0%" x2="0%" y2="100%" id="linearGradient-1">
            <stop stop-color="#66BEE5" offset="0%"></stop>
            <stop stop-color="#FFFFFF" offset="100%"></stop>
        </linearGradient>
    </defs>
    <g id="1---Home" stroke="none" stroke-width="1" fill="none" fill-rule="evenodd" opacity="0.5">
        <g id="1-1-1-Home-m" transform="translate(-143.000000, -510.000000)" stroke-width="2" stroke="url(#linearGradient-1)">
            <g id="s-expertise" transform="translate(0.000000, 480.000000)">
                <g id="3D-kidney_8313">
                    <path d="M224.531101,258 C224.531101,258 268.162575,241.718263 285.193852,221.67458 C302.208212,201.648886 304.078703,192.939649 303.997578,163.973544 L303.796111,82.9697975 L303.643088,32.1458237 C303.643088,32.1458237 284.004657,43.853824 263.984054,42.4507011 C241.279401,40.8573567 223.851341,32 223.851341,32 C223.851341,32 206.430971,40.9618446 183.740928,42.6941234 C163.713404,44.209389 144,32.6181242 144,32.6181242 L144,32.6181242" id="Stroke-1"></path>
                </g>
            </g>
        </g>
    </g>
</svg>