<?xml version="1.0" encoding="UTF-8"?>
<svg width="125px" height="45px" viewBox="0 0 125 45" version="1.1" xmlns="http://www.w3.org/2000/svg" xmlns:xlink="http://www.w3.org/1999/xlink">
    <!-- Generator: Sketch 45.2 (43514) - http://www.bohemiancoding.com/sketch -->
    <title>Artboard</title>
    <desc>Created with Sketch.</desc>
    <defs></defs>
    <g id="Symbols" stroke="none" stroke-width="1" fill="none" fill-rule="evenodd">
        <g id="Artboard">
            <g id="Tulane_Shield_Black" fill-rule="nonzero">
                <path d="M0.183838384,0.328571429 L0.183838384,9.26 L0.183838384,23.4942857 C0.183838384,28.5828571 0.514747475,30.1114286 3.47313131,33.6228571 C6.43151515,37.1342857 14.0084848,39.9771429 14.0084848,39.9771429 C14.0084848,39.9771429 21.5713131,37.14 24.529697,33.6285714 C27.4880808,30.1171429 27.8161616,28.5885714 27.8161616,23.5 L27.8161616,9.26571429 L27.8161616,0.328571429 C27.8161616,0.328571429 24.4222222,2.37714286 20.9434343,2.12 C18.536882,1.92989797 16.1843725,1.30067819 14,0.262857143 C11.8132526,1.29962135 9.45908393,1.92877236 7.05090909,2.12 C3.58909091,2.37714286 0.183838384,0.328571429 0.183838384,0.328571429 Z" id="Shape" stroke="#FFFFFF" stroke-width="0.5"></path>
                <path d="M15.6109719,25.5036095 C16.9488721,25.4187768 18.7358009,25.0511482 20.140202,23.6342857 C20.7058586,23.02 21.3959596,21.7114286 21.3959596,19.5028571 L21.3959596,14.1893074 L23.4210101,17.1571429 L24.9058586,16.3 L23.5567677,11.4057143 C23.5567677,11.4057143 22.8536496,11.2137433 21.4315255,11.0115021 C21.533099,9.84357367 21.8245397,8.48768369 22.6121212,8.12 L22.4989899,7.56285714 C22.4989899,7.56285714 18.0727273,6.83428571 17.0234343,6.29714286 L16.7208081,8.01142857 C16.7208081,8.01142857 18.8430352,8.16836638 18.8838481,10.7331834 C17.5445094,10.6254616 15.9141314,10.5485714 13.9886869,10.5485714 L13.9915152,10.5714286 C12.0620569,10.5714286 10.4313666,10.645989 9.09324821,10.7505304 C9.12324577,8.16633246 11.2593939,8.00857143 11.2593939,8.00857143 L10.9539394,6.29428571 C9.91030303,6.83428571 5.4840404,7.56285714 5.4840404,7.56285714 L5.37090909,8.12 C6.15900534,8.4886398 6.45003951,9.85063191 6.55132899,11.0206093 C5.12636559,11.2179724 4.42626263,11.4057143 4.42626263,11.4057143 L3.06585859,16.2914286 L4.54787879,17.1485714 L6.58707071,14.1637795 L6.58707071,19.5028571 C6.58707071,21.7114286 7.27434343,23.02 7.84,23.6342857 C9.23953333,25.0462373 11.0189473,25.4162157 12.3553022,25.5027172 L12.3567677,26.4628571 C12.3567677,27.5428571 12.1559596,28.28 11.1377778,28.28 L9.24565657,28.28 L9.24565657,31.4628571 L18.720404,31.4628571 L18.720404,28.2828571 L16.8311111,28.2828571 C15.8129293,28.2828571 15.6092929,27.5457143 15.6092929,26.4657143 L15.6109719,25.5036095 Z M15.6168236,22.1503314 L15.6319192,13.5 C16.7156022,13.5006964 17.7985675,13.5436199 18.8784046,13.6286078 C18.8795646,15.8035252 18.8844444,18.4428571 18.8844444,18.4428571 C18.8994264,19.1553655 18.803997,19.8658569 18.6016162,20.5485714 C18.2440736,21.4867299 17.7111917,21.9974697 15.6168236,22.1503314 Z M12.3501799,22.1465987 C10.2641569,21.9926694 9.73262057,21.4820895 9.37575758,20.5457143 C9.17373958,19.8629206 9.07831795,19.1524871 9.09292929,18.44 C9.09292929,18.44 9.09879646,15.7955548 9.10018111,13.6194347 C10.1768009,13.5348706 11.2565278,13.4921481 12.3369697,13.4914286 L12.3501799,22.1465987 Z M1.08888889,1.90571429 C1.08888889,1.90571429 4.20282828,3.42 7.43555556,3.17714286 C9.70069908,2.98578492 11.9149563,2.3939331 13.9773737,1.42857143 C16.0336444,2.40551028 18.2481422,2.99793865 20.5135354,3.17714286 C23.7773737,3.42 26.8149495,2.03428571 26.8149495,2.03428571 L26.8149495,9.9 L26.8149495,23.2971429 C26.8149495,28.0857143 26.6735354,29.5228571 23.8905051,32.8285714 C21.1074747,36.1342857 13.9915152,38.8028571 13.9915152,38.8028571 C13.9915152,38.8028571 6.87838384,36.1371429 4.09252525,32.8285714 C1.30666667,29.52 1.08888889,27.9885714 1.08888889,23.2 L1.08888889,1.90571429 Z" id="Combined-Shape" fill="#FFFFFF"></path>
                <path d="M13.9886869,10.5485714 C20.4173737,10.5485714 23.5567677,11.4057143 23.5567677,11.4057143 L24.9058586,16.3 L23.4210101,17.1571429 L21.1810101,13.8742857 C19.3414892,13.6262267 17.4877565,13.5011926 15.6319192,13.5 L15.6092929,26.4657143 C15.6092929,27.5457143 15.8129293,28.2828571 16.8311111,28.2828571 L18.720404,28.2828571 L18.720404,31.4628571 L9.24565657,31.4628571 L9.24565657,28.28 L11.1377778,28.28 C12.1559596,28.28 12.3567677,27.5428571 12.3567677,26.4628571 L12.3369697,13.4914286 C10.4820734,13.4926638 8.62928426,13.617698 6.79070707,13.8657143 L4.54787879,17.1485714 L3.06585859,16.2914286 L4.42626263,11.4057143 C4.42626263,11.4057143 7.53737374,10.5714286 13.9915152,10.5714286 L13.9915152,10.5714286 L13.9886869,10.5485714 Z" id="Shape" stroke="#FFFFFF" stroke-width="0.5"></path>
            </g>
            <path d="M42.09,10.264 L42.09,5.014 L41.502,5.014 C40.83,5.014 39.318,5.014 38.436,5.308 C37.764,5.602 36.966,6.988 36.567,7.702 C36.504,7.807 36.441,7.891 36.336,7.849 L35.916,7.702 C35.832,7.66 35.811,7.597 35.832,7.492 L36.84,3.628 C36.882,3.334 37.008,3.25 37.092,3.25 C37.218,3.25 37.302,3.334 37.428,3.46 C37.848,3.88 38.268,3.985 38.856,4.006 C39.99,4.048 40.872,4.132 42.93,4.132 L44.064,4.132 C46.374,4.132 47.256,4.048 48.222,4.006 C48.621,3.985 49.419,3.691 49.734,3.46 C49.902,3.334 49.986,3.25 50.112,3.25 C50.238,3.25 50.28,3.334 50.322,3.586 C50.364,3.964 50.784,6.568 50.952,7.576 C50.973,7.702 50.931,7.744 50.868,7.765 L50.448,7.912 C50.364,7.933 50.322,7.87 50.259,7.744 C49.965,7.156 49.188,5.812 48.6,5.392 C48.012,5.056 46.122,5.014 45.366,5.014 L44.778,5.014 L44.778,16.207 C44.778,17.803 44.988,18.223 45.492,18.223 L46.71,18.223 C46.794,18.223 46.836,18.307 46.836,18.412 L46.836,18.853 C46.836,18.979 46.794,19.063 46.626,19.063 C46.416,19.063 45.744,19 43.476,19 C41.334,19 40.452,19.063 40.158,19.063 C40.032,19.063 39.99,19.021 39.99,18.874 L39.99,18.391 C39.99,18.265 40.053,18.223 40.137,18.223 L41.334,18.223 C41.754,18.223 42.006,17.971 42.027,17.656 C42.09,17.11 42.09,10.684 42.09,10.264 Z M56.727,19 L56.601,17.824 L56.475,17.824 C56.013,18.58 54.795,19.252 53.703,19.252 C52.947,19.252 52.275,19.252 51.54,18.328 C50.784,17.341 50.763,16.564 50.763,15.388 C50.763,14.38 50.784,13.645 50.784,13.204 C50.784,12.7 50.784,11.944 50.742,11.692 C50.679,11.167 50.385,10.978 50.007,10.936 C49.671,10.894 49.545,10.894 49.545,10.768 L49.545,10.39 C49.545,10.264 49.587,10.222 49.797,10.222 L52.317,10.222 C52.443,10.222 52.548,10.201 52.632,10.18 C52.716,10.159 52.8,10.138 52.863,10.138 C52.989,10.138 53.073,10.264 53.073,10.39 C53.073,10.6 52.989,11.566 52.989,13.015 L52.989,14.338 C52.989,15.178 52.842,16.606 53.409,17.488 C53.829,18.118 54.291,18.076 54.753,18.076 C55.257,18.076 55.887,17.74 56.223,17.278 C56.307,17.152 56.454,16.858 56.454,16.606 L56.454,11.65 C56.454,11.104 56.055,10.978 55.551,10.936 C55.173,10.894 55.131,10.852 55.131,10.768 L55.131,10.39 C55.131,10.243 55.194,10.222 55.383,10.222 L57.987,10.222 C58.134,10.222 58.239,10.201 58.344,10.18 C58.449,10.159 58.533,10.138 58.617,10.138 C58.743,10.138 58.785,10.264 58.785,10.348 C58.785,10.558 58.659,11.104 58.659,13.183 L58.659,14.716 C58.659,15.724 58.659,16.732 58.701,17.152 C58.785,17.782 58.995,17.866 59.163,17.866 C59.289,17.866 59.583,17.866 59.835,17.824 C60.003,17.803 60.066,17.824 60.087,17.908 L60.15,18.244 C60.171,18.37 60.129,18.412 60.045,18.433 L57.441,19.168 C57.315,19.21 57.189,19.252 57.021,19.252 C56.853,19.252 56.748,19.168 56.727,19 Z M62.061,10.957 L62.061,17.53 C62.061,18.118 61.746,18.286 61.536,18.286 L60.738,18.286 C60.486,18.286 60.444,18.328 60.444,18.454 L60.444,18.853 C60.444,18.979 60.486,19.063 60.612,19.063 C60.78,19.063 61.62,19 63.216,19 C64.686,19 65.61,19.063 65.778,19.063 C65.862,19.063 65.904,18.979 65.904,18.853 L65.904,18.475 C65.904,18.328 65.862,18.286 65.652,18.286 L64.854,18.286 C64.392,18.286 64.35,17.992 64.308,17.614 C64.266,16.984 64.266,14.842 64.266,13.876 L64.266,10.852 C64.266,9.697 64.308,5.329 64.35,4.195 C64.35,3.901 64.266,3.817 64.14,3.817 C64.056,3.817 63.93,3.859 63.678,3.943 C63.006,4.363 61.368,4.909 60.528,5.161 C60.402,5.203 60.36,5.287 60.36,5.329 L60.36,5.581 C60.36,5.665 60.36,5.707 60.486,5.749 L60.906,5.875 C61.578,6.085 61.935,6.421 61.977,7.135 C62.019,7.681 62.061,9.487 62.061,10.957 Z M71.406,17.971 L71.322,17.971 C70.86,18.475 70.314,18.832 69.495,19.105 C69.012,19.252 68.571,19.252 68.151,19.252 C67.374,19.252 66.702,18.622 66.702,17.446 C66.702,16.48 67.122,15.535 68.634,14.863 C69.936,14.233 70.734,13.897 71.196,13.561 L71.196,12.469 C71.154,12.049 71.112,11.545 70.86,11.293 C70.65,11.062 70.272,10.978 69.81,10.978 C69.432,10.978 68.928,11.104 68.592,11.356 C68.298,11.566 68.508,11.881 68.508,12.385 C68.508,13.141 68.13,13.603 67.248,13.603 C66.87,13.603 66.534,13.351 66.534,12.889 C66.534,12.301 66.87,11.629 67.5,11.167 C68.382,10.495 69.516,9.991 70.902,9.991 C72.078,9.991 72.456,10.243 72.834,10.579 C73.296,10.999 73.338,11.587 73.338,12.154 L73.38,15.472 L73.38,16.48 C73.38,17.614 73.548,17.95 73.926,17.95 C74.22,17.95 74.514,17.782 74.598,17.614 C74.682,17.488 74.724,17.488 74.808,17.53 L75.06,17.698 C75.144,17.74 75.186,17.824 75.102,18.034 C74.892,18.412 74.388,19.252 73.17,19.252 C72.372,19.252 71.7,18.874 71.406,17.971 Z M71.196,17.089 L71.196,14.338 C70.272,14.926 68.886,15.283 68.886,16.816 C68.886,17.677 69.348,18.097 69.852,18.097 C70.44,18.055 71.196,17.467 71.196,17.089 Z M75.984,11.251 C75.858,11.293 75.774,11.377 75.774,11.461 L75.774,11.629 C75.774,11.713 75.816,11.797 75.942,11.839 L76.11,11.923 C76.614,12.175 76.992,12.511 76.992,13.141 L76.992,17.866 C76.992,18.202 76.698,18.286 76.446,18.286 L76.026,18.286 C75.858,18.286 75.816,18.328 75.816,18.454 L75.816,18.853 C75.816,18.979 75.858,19.063 75.942,19.063 C76.068,19.063 76.74,19 78.042,19 C79.302,19 79.89,19.063 80.016,19.063 C80.142,19.063 80.184,18.979 80.184,18.853 L80.184,18.475 C80.184,18.328 80.142,18.286 79.974,18.286 L79.596,18.286 C79.302,18.286 79.197,18.034 79.197,17.572 L79.197,13.246 C79.197,12.679 79.302,12.091 79.638,11.755 C80.142,11.293 80.646,11.209 80.982,11.209 C81.444,11.209 81.822,11.209 82.242,11.587 C82.746,12.007 82.788,12.553 82.788,13.393 L82.788,15.808 C82.788,16.648 82.767,17.236 82.704,17.782 C82.662,18.16 82.494,18.286 82.326,18.286 L81.906,18.286 C81.696,18.286 81.654,18.328 81.654,18.454 L81.654,18.811 C81.654,18.979 81.696,19.063 81.822,19.063 C81.948,19.063 82.62,19 83.88,19 C85.35,19 85.98,19.063 86.148,19.063 C86.274,19.063 86.316,19.021 86.316,18.916 L86.316,18.433 C86.316,18.328 86.253,18.286 86.064,18.286 L85.476,18.286 C85.224,18.286 84.972,18.16 84.972,17.698 C84.972,17.278 84.993,16.354 84.993,15.682 L84.993,12.658 C84.993,11.797 84.762,11.167 83.838,10.495 C83.376,10.117 82.704,9.991 81.99,9.991 C81.36,9.991 80.814,10.201 80.31,10.495 C79.89,10.705 79.512,11.041 79.26,11.335 L79.134,11.335 L78.966,10.243 C78.924,10.075 78.84,9.991 78.714,9.991 C78.588,9.991 78.462,10.075 78.294,10.159 L75.984,11.251 Z M89.466,13.687 L89.466,14.338 C89.466,16.48 90.999,17.74 92.196,17.74 C93.498,17.74 94.296,17.194 94.737,16.522 C94.821,16.375 94.905,16.375 94.989,16.417 L95.304,16.606 C95.409,16.669 95.451,16.753 95.304,17.026 C94.863,17.824 93.792,19.252 91.482,19.252 C90.138,19.252 89.193,18.958 88.458,18.118 C87.492,17.005 87.282,15.955 87.282,14.653 C87.282,13.498 87.408,12.721 88.311,11.545 C89.193,10.411 90.138,9.991 91.965,9.991 C94.359,9.991 95.136,12.49 95.136,13.351 C95.136,13.666 94.926,13.687 94.548,13.687 L89.466,13.687 Z M89.529,12.931 L92.07,12.931 C92.511,12.931 92.763,12.805 92.763,12.637 C92.763,12.007 92.553,10.768 91.461,10.768 C90.432,10.768 89.802,11.524 89.529,12.931 Z" id="Tulane" fill="#FFFFFF"></path>
            <path d="M38.079,30.936 C38.079,33.687 38.163,35.073 38.457,35.997 C38.877,37.341 39.717,38.307 40.935,38.811 C41.733,39.147 42.951,39.315 43.959,39.315 C45.555,39.315 46.899,38.811 47.781,38.013 C48.915,37.005 49.419,35.703 49.545,33.981 C49.629,33.141 49.671,29.487 49.671,29.193 C49.671,28.92 49.671,25.98 49.713,25.728 C49.755,25.497 49.839,24.909 50.595,24.909 L51.351,24.909 C51.456,24.909 51.477,24.846 51.477,24.72 L51.477,24.237 C51.477,24.132 51.456,24.069 51.267,24.069 C51.099,24.069 50.427,24.132 49.125,24.132 C47.739,24.132 46.773,24.069 46.563,24.069 C46.437,24.069 46.395,24.111 46.395,24.237 L46.395,24.762 C46.395,24.846 46.437,24.909 46.563,24.909 L47.319,24.909 C47.781,24.909 48.117,25.287 48.18,25.833 C48.243,26.316 48.411,28.164 48.411,29.844 L48.411,33.624 C48.411,35.157 47.991,36.375 47.193,37.173 C46.521,37.803 45.345,38.181 44.379,38.181 C43.371,38.181 42.237,37.845 41.523,36.879 C41.019,36.207 40.851,35.241 40.788,34.275 C40.746,33.603 40.725,32.112 40.725,31.062 L40.725,28.458 C40.725,27.24 40.767,25.98 40.788,25.728 C40.809,25.287 41.187,24.909 41.817,24.909 L42.699,24.909 C42.825,24.909 42.867,24.867 42.867,24.741 L42.867,24.216 C42.867,24.111 42.825,24.069 42.699,24.069 C42.447,24.069 41.439,24.132 39.675,24.132 C37.659,24.132 36.651,24.069 36.441,24.069 C36.273,24.069 36.231,24.111 36.231,24.237 L36.231,24.72 C36.231,24.867 36.273,24.909 36.399,24.909 L37.365,24.909 C37.911,24.909 38.079,25.245 38.079,25.959 L38.079,30.936 Z M52.548,31.251 C52.422,31.293 52.338,31.377 52.338,31.461 L52.338,31.629 C52.338,31.713 52.38,31.797 52.506,31.839 L52.674,31.923 C53.178,32.175 53.556,32.511 53.556,33.141 L53.556,37.866 C53.556,38.202 53.262,38.286 53.01,38.286 L52.59,38.286 C52.422,38.286 52.38,38.328 52.38,38.454 L52.38,38.853 C52.38,38.979 52.422,39.063 52.506,39.063 C52.632,39.063 53.304,39 54.606,39 C55.866,39 56.454,39.063 56.58,39.063 C56.706,39.063 56.748,38.979 56.748,38.853 L56.748,38.475 C56.748,38.328 56.706,38.286 56.538,38.286 L56.16,38.286 C55.866,38.286 55.761,38.034 55.761,37.572 L55.761,33.246 C55.761,32.679 55.866,32.091 56.202,31.755 C56.706,31.293 57.21,31.209 57.546,31.209 C58.008,31.209 58.386,31.209 58.806,31.587 C59.31,32.007 59.352,32.553 59.352,33.393 L59.352,35.808 C59.352,36.648 59.331,37.236 59.268,37.782 C59.226,38.16 59.058,38.286 58.89,38.286 L58.47,38.286 C58.26,38.286 58.218,38.328 58.218,38.454 L58.218,38.811 C58.218,38.979 58.26,39.063 58.386,39.063 C58.512,39.063 59.184,39 60.444,39 C61.914,39 62.544,39.063 62.712,39.063 C62.838,39.063 62.88,39.021 62.88,38.916 L62.88,38.433 C62.88,38.328 62.817,38.286 62.628,38.286 L62.04,38.286 C61.788,38.286 61.536,38.16 61.536,37.698 C61.536,37.278 61.557,36.354 61.557,35.682 L61.557,32.658 C61.557,31.797 61.326,31.167 60.402,30.495 C59.94,30.117 59.268,29.991 58.554,29.991 C57.924,29.991 57.378,30.201 56.874,30.495 C56.454,30.705 56.076,31.041 55.824,31.335 L55.698,31.335 L55.53,30.243 C55.488,30.075 55.404,29.991 55.278,29.991 C55.152,29.991 55.026,30.075 54.858,30.159 L52.548,31.251 Z M65.043,35.976 L65.043,33.015 C65.043,32.385 64.917,31.965 63.951,31.713 C63.762,31.671 63.741,31.608 63.741,31.524 L63.741,31.293 C63.741,31.209 63.783,31.167 63.888,31.125 C64.182,30.999 66.261,30.264 66.618,30.117 C66.828,30.033 66.996,29.991 67.122,29.991 C67.248,29.991 67.311,30.075 67.29,30.243 C67.248,30.579 67.248,31.923 67.248,33.666 L67.248,35.934 C67.248,36.732 67.248,37.488 67.29,37.74 C67.332,38.118 67.416,38.286 67.626,38.286 L68.466,38.286 C68.634,38.286 68.676,38.328 68.676,38.433 L68.676,38.853 C68.676,38.979 68.634,39.063 68.508,39.063 C68.34,39.063 67.374,39 65.967,39 C64.749,39 63.951,39.063 63.699,39.063 C63.594,39.063 63.531,39.021 63.531,38.853 L63.531,38.454 C63.531,38.328 63.615,38.286 63.741,38.286 L64.665,38.286 C64.875,38.286 64.98,38.202 65.001,37.866 C65.022,37.236 65.043,36.564 65.043,35.976 Z M67.185,26.526 C67.185,26.022 66.765,25.308 65.883,25.308 C65.022,25.308 64.413,25.98 64.413,26.61 C64.413,27.345 65.085,27.87 65.757,27.87 C66.744,27.87 67.185,27.156 67.185,26.526 Z M73.464,39.315 C73.212,39.315 73.086,39.147 72.918,38.832 C72.792,38.622 71.28,35.073 71.07,34.548 C70.923,34.128 70.104,31.965 69.936,31.692 C69.6,31.104 69.432,30.936 69.054,30.936 L68.655,30.936 C68.55,30.936 68.508,30.894 68.508,30.768 L68.508,30.327 C68.508,30.201 68.55,30.159 68.718,30.159 C68.97,30.159 69.306,30.222 71.028,30.222 C72.33,30.222 72.876,30.159 73.128,30.159 C73.296,30.159 73.338,30.201 73.338,30.327 L73.338,30.726 C73.338,30.852 73.296,30.936 73.17,30.936 L72.834,30.936 C72.582,30.936 72.372,31.062 72.372,31.293 C72.372,31.671 72.96,33.372 73.086,33.75 L74.136,36.48 L74.262,36.48 C74.514,35.892 75.774,32.847 76.068,31.86 C76.236,31.314 75.984,30.936 75.606,30.936 L75.27,30.936 C75.186,30.936 75.144,30.873 75.144,30.768 L75.144,30.306 C75.144,30.201 75.186,30.159 75.312,30.159 C75.564,30.159 76.026,30.222 77.16,30.222 C78.126,30.222 78.63,30.159 78.798,30.159 C78.966,30.159 79.008,30.201 79.008,30.306 L79.008,30.768 C79.008,30.873 78.966,30.936 78.861,30.936 L78.504,30.936 C78.252,30.936 77.916,30.978 77.706,31.167 C77.328,31.545 76.362,33.624 75.942,34.506 C75.669,35.073 74.094,38.664 73.989,38.874 C73.842,39.147 73.716,39.315 73.464,39.315 Z M81.129,33.687 L81.129,34.338 C81.129,36.48 82.662,37.74 83.859,37.74 C85.161,37.74 85.959,37.194 86.4,36.522 C86.484,36.375 86.568,36.375 86.652,36.417 L86.967,36.606 C87.072,36.669 87.114,36.753 86.967,37.026 C86.526,37.824 85.455,39.252 83.145,39.252 C81.801,39.252 80.856,38.958 80.121,38.118 C79.155,37.005 78.945,35.955 78.945,34.653 C78.945,33.498 79.071,32.721 79.974,31.545 C80.856,30.411 81.801,29.991 83.628,29.991 C86.022,29.991 86.799,32.49 86.799,33.351 C86.799,33.666 86.589,33.687 86.211,33.687 L81.129,33.687 Z M81.192,32.931 L83.733,32.931 C84.174,32.931 84.426,32.805 84.426,32.637 C84.426,32.007 84.216,30.768 83.124,30.768 C82.095,30.768 81.465,31.524 81.192,32.931 Z M89.298,37.719 C89.298,38.118 89.088,38.286 88.752,38.286 L88.017,38.286 C87.87,38.286 87.828,38.328 87.828,38.454 L87.828,38.916 C87.828,39.021 87.87,39.063 87.975,39.063 C88.143,39.063 88.962,39 90.432,39 C91.965,39 92.889,39.063 93.036,39.063 C93.141,39.063 93.183,39.021 93.183,38.916 L93.183,38.433 C93.183,38.328 93.141,38.286 93.015,38.286 L92.091,38.286 C91.671,38.286 91.503,38.076 91.503,37.404 L91.503,33.393 C91.503,33.12 91.587,32.658 91.755,32.364 C92.007,31.923 92.385,31.755 92.637,31.755 C92.847,31.755 93.057,31.797 93.225,31.923 C93.393,32.007 93.645,32.091 93.939,32.091 C94.485,32.091 95.073,31.545 95.073,30.957 C95.073,30.369 94.653,29.907 93.981,29.907 C93.057,29.907 92.175,30.621 91.461,31.797 L91.377,31.797 L91.188,30.243 C91.167,30.117 91.125,29.991 90.999,29.991 C90.873,29.991 90.789,30.033 90.663,30.075 L88.122,31.272 C87.996,31.335 87.954,31.377 87.954,31.461 L87.954,31.587 C87.954,31.671 87.996,31.713 88.122,31.755 L88.5,31.965 C89.13,32.301 89.298,32.637 89.298,33.603 L89.298,37.719 Z M96.06,38.475 C96.081,38.559 96.144,38.622 96.228,38.706 C96.459,38.895 97.383,39.252 98.496,39.252 C100.575,39.252 102.003,37.992 102.003,36.228 C102.003,35.514 101.835,35.01 101.373,34.548 C100.827,33.96 100.239,33.708 99.273,33.456 C98.013,33.12 97.383,32.868 97.383,32.007 C97.383,31.272 98.055,30.81 98.832,30.81 C99.525,30.81 99.903,31.188 100.155,31.461 L101.163,32.595 C101.205,32.679 101.268,32.7 101.331,32.679 L101.73,32.49 C101.772,32.448 101.772,32.343 101.751,32.259 L101.478,30.831 C101.457,30.705 101.394,30.621 101.079,30.453 C100.701,30.243 100.071,29.991 99.042,29.991 C98.181,29.991 97.593,30.18 96.858,30.684 C96.123,31.209 95.787,31.965 95.787,32.889 C95.787,34.38 96.921,35.094 98.349,35.514 C99.819,35.934 100.365,36.312 100.365,37.152 C100.365,37.929 99.693,38.433 98.874,38.433 C97.845,38.433 97.446,37.929 97.068,37.299 L96.375,36.123 C96.333,36.039 96.27,36.039 96.186,36.06 L95.787,36.186 C95.724,36.207 95.703,36.27 95.724,36.354 L96.06,38.475 Z M104.544,35.976 C104.544,36.564 104.523,37.236 104.502,37.866 C104.481,38.202 104.376,38.286 104.166,38.286 L103.242,38.286 C103.116,38.286 103.032,38.328 103.032,38.454 L103.032,38.853 C103.032,39.021 103.095,39.063 103.2,39.063 C103.452,39.063 104.25,39 105.468,39 C106.875,39 107.841,39.063 108.009,39.063 C108.135,39.063 108.177,38.979 108.177,38.853 L108.177,38.433 C108.177,38.328 108.135,38.286 107.967,38.286 L107.127,38.286 C106.917,38.286 106.833,38.118 106.791,37.74 C106.749,37.488 106.749,36.732 106.749,35.934 L106.749,33.666 C106.749,31.923 106.749,30.579 106.791,30.243 C106.812,30.075 106.749,29.991 106.623,29.991 C106.497,29.991 106.329,30.033 106.119,30.117 C105.762,30.264 103.683,30.999 103.389,31.125 C103.284,31.167 103.242,31.209 103.242,31.293 L103.242,31.524 C103.242,31.608 103.263,31.671 103.452,31.713 C104.418,31.965 104.544,32.385 104.544,33.015 L104.544,35.976 Z M106.686,26.526 C106.686,26.022 106.266,25.308 105.384,25.308 C104.523,25.308 103.914,25.98 103.914,26.61 C103.914,27.345 104.586,27.87 105.258,27.87 C106.245,27.87 106.686,27.156 106.686,26.526 Z M110.214,31.398 L108.996,31.398 C108.828,31.398 108.702,31.314 108.702,31.104 C108.702,30.936 108.828,30.81 109.101,30.705 C109.689,30.495 111.516,28.941 111.978,28.059 C112.062,27.891 112.188,27.849 112.314,27.849 C112.482,27.849 112.566,27.975 112.566,28.143 L112.482,30.222 L115.254,30.222 C115.38,30.222 115.422,30.306 115.401,30.39 L115.191,31.272 C115.17,31.356 115.107,31.398 114.981,31.398 L112.44,31.398 C112.398,32.28 112.377,33.288 112.377,34.212 L112.377,36.102 C112.377,37.74 113.07,38.076 113.49,38.076 C113.952,38.076 114.414,37.971 114.708,37.824 C114.855,37.761 114.918,37.761 114.96,37.866 L115.086,38.118 C115.128,38.244 115.086,38.328 115.002,38.412 C114.708,38.622 113.826,39.252 112.356,39.252 C111.096,39.252 110.151,38.244 110.151,37.362 C110.151,36.606 110.214,34.926 110.214,34.128 L110.214,31.398 Z M116.661,44.712 C115.905,44.712 115.401,44.25 115.401,43.578 C115.401,42.99 115.863,42.528 116.409,42.528 C116.745,42.528 117.081,42.654 117.333,42.78 C117.501,42.864 117.753,42.864 117.879,42.738 C118.131,42.486 119.223,40.176 119.475,39.378 C119.349,38.748 116.913,32.175 116.766,31.818 C116.535,31.272 116.325,30.936 115.905,30.936 L115.485,30.936 C115.359,30.936 115.317,30.873 115.317,30.768 L115.317,30.306 C115.317,30.222 115.359,30.159 115.485,30.159 C115.653,30.159 116.157,30.222 117.711,30.222 C118.929,30.222 119.559,30.159 119.811,30.159 C119.937,30.159 119.979,30.201 119.979,30.327 L119.979,30.789 C119.979,30.873 119.937,30.936 119.832,30.936 L119.517,30.936 C119.307,30.936 119.139,31.062 119.202,31.377 C119.265,31.797 120.525,36.102 120.735,36.564 L120.819,36.564 C121.197,35.766 122.667,32.175 122.772,31.734 C122.898,31.188 122.709,30.936 122.331,30.936 L121.995,30.936 C121.869,30.936 121.827,30.873 121.827,30.789 L121.827,30.327 C121.827,30.222 121.869,30.159 121.995,30.159 C122.247,30.159 122.667,30.222 123.801,30.222 C124.515,30.222 125.019,30.159 125.208,30.159 C125.313,30.159 125.355,30.222 125.355,30.327 L125.355,30.768 C125.355,30.894 125.313,30.936 125.229,30.936 L124.977,30.936 C124.767,30.936 124.452,30.999 124.221,31.293 C123.801,31.839 122.373,35.01 120.861,38.412 C119.811,40.68 118.929,42.654 118.551,43.326 C118.215,43.872 117.795,44.712 116.661,44.712 Z" id="University" fill="#FFFFFF"></path>
        </g>
    </g>
</svg>