<?xml version="1.0" encoding="UTF-8"?>
<svg width="28px" height="40px" viewBox="0 0 28 40" version="1.1" xmlns="http://www.w3.org/2000/svg" xmlns:xlink="http://www.w3.org/1999/xlink">
    <!-- Generator: Sketch 45.2 (43514) - http://www.bohemiancoding.com/sketch -->
    <title>Artboard 2</title>
    <desc>Created with Sketch.</desc>
    <defs></defs>
    <g id="Symbols" stroke="none" stroke-width="1" fill="none" fill-rule="evenodd">
        <g id="Artboard-2" fill-rule="nonzero">
            <g id="Tulane_Shield_Black">
                <path d="M0.183838384,0.328571429 L0.183838384,9.26 L0.183838384,23.4942857 C0.183838384,28.5828571 0.514747475,30.1114286 3.47313131,33.6228571 C6.43151515,37.1342857 14.0084848,39.9771429 14.0084848,39.9771429 C14.0084848,39.9771429 21.5713131,37.14 24.529697,33.6285714 C27.4880808,30.1171429 27.8161616,28.5885714 27.8161616,23.5 L27.8161616,9.26571429 L27.8161616,0.328571429 C27.8161616,0.328571429 24.4222222,2.37714286 20.9434343,2.12 C18.536882,1.92989797 16.1843725,1.30067819 14,0.262857143 C11.8132526,1.29962135 9.45908393,1.92877236 7.05090909,2.12 C3.58909091,2.37714286 0.183838384,0.328571429 0.183838384,0.328571429 Z" id="Shape" stroke="#FFFFFF" stroke-width="0.5"></path>
                <path d="M15.6109719,25.5036095 C16.9488721,25.4187768 18.7358009,25.0511482 20.140202,23.6342857 C20.7058586,23.02 21.3959596,21.7114286 21.3959596,19.5028571 L21.3959596,14.1893074 L23.4210101,17.1571429 L24.9058586,16.3 L23.5567677,11.4057143 C23.5567677,11.4057143 22.8536496,11.2137433 21.4315255,11.0115021 C21.533099,9.84357367 21.8245397,8.48768369 22.6121212,8.12 L22.4989899,7.56285714 C22.4989899,7.56285714 18.0727273,6.83428571 17.0234343,6.29714286 L16.7208081,8.01142857 C16.7208081,8.01142857 18.8430352,8.16836638 18.8838481,10.7331834 C17.5445094,10.6254616 15.9141314,10.5485714 13.9886869,10.5485714 L13.9915152,10.5714286 C12.0620569,10.5714286 10.4313666,10.645989 9.09324821,10.7505304 C9.12324577,8.16633246 11.2593939,8.00857143 11.2593939,8.00857143 L10.9539394,6.29428571 C9.91030303,6.83428571 5.4840404,7.56285714 5.4840404,7.56285714 L5.37090909,8.12 C6.15900534,8.4886398 6.45003951,9.85063191 6.55132899,11.0206093 C5.12636559,11.2179724 4.42626263,11.4057143 4.42626263,11.4057143 L3.06585859,16.2914286 L4.54787879,17.1485714 L6.58707071,14.1637795 L6.58707071,19.5028571 C6.58707071,21.7114286 7.27434343,23.02 7.84,23.6342857 C9.23953333,25.0462373 11.0189473,25.4162157 12.3553022,25.5027172 L12.3567677,26.4628571 C12.3567677,27.5428571 12.1559596,28.28 11.1377778,28.28 L9.24565657,28.28 L9.24565657,31.4628571 L18.720404,31.4628571 L18.720404,28.2828571 L16.8311111,28.2828571 C15.8129293,28.2828571 15.6092929,27.5457143 15.6092929,26.4657143 L15.6109719,25.5036095 Z M15.6168236,22.1503314 L15.6319192,13.5 C16.7156022,13.5006964 17.7985675,13.5436199 18.8784046,13.6286078 C18.8795646,15.8035252 18.8844444,18.4428571 18.8844444,18.4428571 C18.8994264,19.1553655 18.803997,19.8658569 18.6016162,20.5485714 C18.2440736,21.4867299 17.7111917,21.9974697 15.6168236,22.1503314 Z M12.3501799,22.1465987 C10.2641569,21.9926694 9.73262057,21.4820895 9.37575758,20.5457143 C9.17373958,19.8629206 9.07831795,19.1524871 9.09292929,18.44 C9.09292929,18.44 9.09879646,15.7955548 9.10018111,13.6194347 C10.1768009,13.5348706 11.2565278,13.4921481 12.3369697,13.4914286 L12.3501799,22.1465987 Z M1.08888889,1.90571429 C1.08888889,1.90571429 4.20282828,3.42 7.43555556,3.17714286 C9.70069908,2.98578492 11.9149563,2.3939331 13.9773737,1.42857143 C16.0336444,2.40551028 18.2481422,2.99793865 20.5135354,3.17714286 C23.7773737,3.42 26.8149495,2.03428571 26.8149495,2.03428571 L26.8149495,9.9 L26.8149495,23.2971429 C26.8149495,28.0857143 26.6735354,29.5228571 23.8905051,32.8285714 C21.1074747,36.1342857 13.9915152,38.8028571 13.9915152,38.8028571 C13.9915152,38.8028571 6.87838384,36.1371429 4.09252525,32.8285714 C1.30666667,29.52 1.08888889,27.9885714 1.08888889,23.2 L1.08888889,1.90571429 Z" id="Combined-Shape" fill="#FFFFFF"></path>
                <path d="M13.9886869,10.5485714 C20.4173737,10.5485714 23.5567677,11.4057143 23.5567677,11.4057143 L24.9058586,16.3 L23.4210101,17.1571429 L21.1810101,13.8742857 C19.3414892,13.6262267 17.4877565,13.5011926 15.6319192,13.5 L15.6092929,26.4657143 C15.6092929,27.5457143 15.8129293,28.2828571 16.8311111,28.2828571 L18.720404,28.2828571 L18.720404,31.4628571 L9.24565657,31.4628571 L9.24565657,28.28 L11.1377778,28.28 C12.1559596,28.28 12.3567677,27.5428571 12.3567677,26.4628571 L12.3369697,13.4914286 C10.4820734,13.4926638 8.62928426,13.617698 6.79070707,13.8657143 L4.54787879,17.1485714 L3.06585859,16.2914286 L4.42626263,11.4057143 C4.42626263,11.4057143 7.53737374,10.5714286 13.9915152,10.5714286 L13.9915152,10.5714286 L13.9886869,10.5485714 Z" id="Shape" stroke="#FFFFFF" stroke-width="0.5"></path>
            </g>
        </g>
    </g>
</svg>