<?xml version="1.0" encoding="UTF-8"?>
<svg width="46px" height="48px" viewBox="0 0 46 48" version="1.1" xmlns="http://www.w3.org/2000/svg" xmlns:xlink="http://www.w3.org/1999/xlink">
    <!-- Generator: Sketch 45.2 (43514) - http://www.bohemiancoding.com/sketch -->
    <title>Fill 5</title>
    <desc>Created with Sketch.</desc>
    <defs></defs>
    <g id="7---Work-With-Us" stroke="none" stroke-width="1" fill="none" fill-rule="evenodd">
        <g id="7-1-1-Work-With-Us-d" transform="translate(-873.000000, -256.000000)" fill="#FFFFFF">
            <g id="Group-4" transform="translate(640.000000, 256.000000)">
                <path d="M264.956612,37.123878 C263.833381,37.123878 263.258682,38.246972 262.986307,39.6524466 C261.635939,38.246972 261.077161,36.2819102 261.077161,34.5981316 C262.138446,34.5981316 263.052667,35.0183315 264.108751,35.6508264 C264.108751,33.8249951 262.557254,32.9143529 261.077161,32.9143529 C261.077161,30.5326975 263.405903,28.2164239 266.649341,28.2164239 C271.804289,28.2164239 273.709652,31.0935389 273.709652,35.7218527 C276.457046,34.1054942 279,29.8944013 279,25.9652185 C279,22.0376037 275.888179,18.3873522 271.941895,18.3873522 C266.161335,18.3873522 263.75914,20.560946 261.147146,24.0721239 C259.101812,26.8042072 258.534364,31.2283792 258.534364,32.9143529 L257.414915,32.9143529 C257.414915,28.9119488 259.242413,24.917541 261.077161,21.4753511 C261.925022,19.8602469 262.912066,17.8967531 262.912066,16.1441432 C262.912066,14.0385967 261.925022,11.720128 260.513496,9.19140263 C259.17621,6.73527144 257.267694,3.08878291 255.999606,0 C254.727892,3.08878291 252.82379,6.73527144 251.482248,9.19140263 C250.07482,11.720128 249.08352,14.0385967 249.08352,16.1441432 C249.08352,17.8967531 250.07482,19.8602469 250.917638,21.4753511 C252.749549,24.917541 254.583666,28.9119488 254.583666,32.9143529 L253.461223,32.9143529 C253.461223,31.2283792 252.898188,26.8042072 250.848441,24.0721239 C248.236447,20.560946 245.836458,18.3873522 240.055898,18.3873522 C236.102206,18.3873522 233,22.0376037 233,25.9652185 C233,29.8944013 235.542797,34.1054942 238.290978,35.7218527 C238.290978,31.0935389 240.196499,28.2164239 245.343251,28.2164239 C248.594097,28.2164239 250.917638,30.5326975 250.917638,32.9143529 C249.441958,32.9143529 247.886048,33.8249951 247.886048,35.6508264 C248.939294,35.0183315 249.857141,34.5981316 250.917638,34.5981316 C250.917638,36.2819102 250.353973,38.246972 249.013693,39.6524466 C248.733909,38.246972 248.165831,37.123878 247.038344,37.123878 C245.696487,37.123878 244.42698,38.5967727 244.42698,40.2074868 C244.42698,41.8970667 245.41828,43.2238322 247.108171,43.2238322 C249.931382,43.2238322 252.898188,39.6524466 253.177026,34.5981316 L254.583666,34.5981316 C254.583666,36.3521526 254.444484,37.757784 254.024888,38.8106357 C253.735804,39.578598 253.461223,40.2799242 253.461223,40.9828183 C253.461223,41.9630757 254.872119,45.4748808 255.999606,48 C257.127093,45.4748808 258.534364,41.9630757 258.534364,40.9828183 C258.534364,40.2799242 258.25395,39.578598 257.974955,38.8106357 C257.550315,37.757784 257.414915,36.3521526 257.414915,34.5981316 L258.822816,34.5981316 C259.101812,39.6524466 262.064205,43.2238322 264.886627,43.2238322 C266.579513,43.2238322 267.570025,41.8970667 267.570025,40.2074868 C267.570025,38.5967727 266.303513,37.123878 264.956612,37.123878" id="Fill-5"></path>
            </g>
        </g>
    </g>
</svg>